<?xml version="1.0" encoding="utf-8"?>
<!-- Generator: Adobe Illustrator 16.0.0, SVG Export Plug-In . SVG Version: 6.00 Build 0)  -->
<!DOCTYPE svg PUBLIC "-//W3C//DTD SVG 1.1//EN" "http://www.w3.org/Graphics/SVG/1.1/DTD/svg11.dtd">
<svg version="1.1" id="Layer_1" xmlns="http://www.w3.org/2000/svg" xmlns:xlink="http://www.w3.org/1999/xlink" x="0px" y="0px" width="568.676px" height="581.909px" viewBox="0 0 568.676 581.909" enable-background="new 0 0 568.676 581.909" xml:space="preserve">
<path fill="#1c75bc" fill-rule="evenodd" clip-rule="evenodd" d="M531.29,581.909c-9.643-2.718-16.458-9.354-23.293-16.226
	c-36.783-36.981-73.725-73.804-110.573-110.721c-1.399-1.401-2.404-3.198-3.713-4.974c-50.75,36.974-106.133,54.708-167.955,50.098
	c-61.617-4.595-113.765-29.747-157.614-73.662c-1.72,2.605-3.389,5.228-5.152,7.784c-4.074,5.909-10.654,7.403-16.563,3.812
	c-5.514-3.351-7.356-10.673-3.989-16.617c2.13-3.76,4.329-7.523,6.928-10.959c2.157-2.85,1.468-4.763-0.49-7.325
	c-20.158-26.385-34.646-55.646-41.847-88.046c-18.137-81.612-1.425-155.298,53.018-219.222
	c36.946-43.379,84.314-70.264,140.457-79.371c84.619-13.725,158.174,9.855,218.725,70.895c35.943,36.234,57.8,80.341,65.693,130.694
	c10.584,67.518-4.992,129.062-45.248,184.324c-0.686,0.941-1.341,1.904-3.091,3.993c1.647,1.112,3.525,1.991,4.907,3.369
	c39.161,39.081,78.295,78.19,117.38,117.349c12.116,12.138,13.071,31.263,2.489,44.038c-4.775,5.765-11.335,8.378-18.072,10.768
	C539.289,581.909,535.289,581.909,531.29,581.909z M366.476,184.26c-1.493,2.886-2.401,4.625-3.294,6.372
	c-21.997,43.061-43.984,86.126-65.997,129.179c-3.632,7.104-7.729,9.03-15.417,7.317c-42.621-9.495-85.251-18.946-127.829-28.627
	c-3.634-0.827-5.318-0.032-7.206,2.965c-17.638,28.011-35.312,56.002-53.277,83.803c-2.965,4.59-2.828,7.269,1.074,11.226
	c49.456,50.157,108.963,71.906,178.936,62.456c52.807-7.131,96.378-32.223,129.447-73.718
	c43.053-54.021,55.617-115.446,38.288-182.271C413.464,96.003,300.694,30.674,193.659,58.363
	C108.17,80.478,45.6,155.77,40.12,242.752c-2.82,44.775,7.395,86.073,31.246,124.029c0.84,1.337,1.836,2.574,3.007,4.202
	c1.485-2.227,2.708-3.972,3.841-5.773c17.973-28.584,35.928-57.179,53.903-85.762c4.294-6.829,7.757-8.328,15.387-6.621
	c42.288,9.461,84.587,18.87,126.827,28.544c3.804,0.871,5.248-0.092,6.857-3.243c20.026-39.218,40.172-78.375,60.277-117.553
	c0.702-1.369,1.311-2.786,2.478-5.281c-8.072,2.689-14.915,5.087-21.833,7.243c-7.475,2.329-14.415-0.68-16.615-6.972
	c-2.443-6.985,1.155-13.847,8.864-16.44c16.523-5.558,33.078-11.023,49.64-16.466c7.809-2.565,13.514-0.022,16.315,7.678
	c5.845,16.065,11.532,32.191,17.076,48.363c2.452,7.152-1.124,13.925-8.138,16.354c-6.202,2.148-12.721-1.436-15.167-8.443
	C371.636,199.589,369.289,192.534,366.476,184.26z"/>
<path fill="#1c75bc" fill-rule="evenodd" clip-rule="evenodd" d="M472.55,33.384c-0.002,18.854-14.741,33.691-33.428,33.653
	c-18.426-0.038-33.743-15.035-33.745-33.038C405.375,15.383,420.458,0.024,438.768,0C457.56-0.025,472.553,14.791,472.55,33.384z
	 M453.282,33.091c0.068-7.726-6.301-14.018-14.332-14.162c-7.959-0.144-14.528,6.124-14.533,13.865
	c-0.005,7.849,6.641,14.779,14.403,15.021C446.561,48.056,453.21,41.287,453.282,33.091z"/>
<path fill-rule="evenodd" clip-rule="evenodd" fill="#1c75bc" d="M91.154,214.681c-3.19-4.518-5.95-8.46-8.745-12.377
	c-3.98-5.576-9.672-7.006-14.599-3.701c-4.587,3.077-5.386,8.986-1.841,14.583c2.821,4.455,5.785,8.819,8.889,13.53
	c-4.317,2.919-8.29,5.603-12.26,8.29c-6.298,4.261-7.941,10.014-4.342,15.185c3.179,4.567,9.304,5.149,15.115,1.381
	c4.263-2.764,8.483-5.594,12.968-8.558c3.4,5.064,6.458,9.801,9.701,14.408c4.43,6.294,12.783,5.542,16.149-1.36
	c1.885-3.866,0.982-7.419-1.111-10.881c-2.807-4.643-5.578-9.307-8.517-14.217c4.553-3.048,8.7-5.774,12.794-8.579
	c5.671-3.884,7.228-9.524,4.086-14.545c-2.971-4.747-9.24-5.597-14.994-1.926C100.125,208.669,95.884,211.553,91.154,214.681z
	 M358.032,341.31c-4.199,3.101-7.796,5.766-11.404,8.415c-5.686,4.176-7.348,10.267-4.073,14.974
	c3.38,4.857,9.141,5.333,15.422,1.247c4.154-2.703,8.289-5.436,12.719-8.342c3.217,4.787,6.05,9.472,9.39,13.762
	c1.51,1.94,3.825,3.688,6.133,4.476c3.907,1.334,7.192-0.551,9.451-3.829c2.496-3.624,2.504-7.577,0.258-11.269
	c-2.98-4.9-6.263-9.617-9.563-14.636c4.34-2.892,8.353-5.529,12.326-8.223c5.848-3.967,7.358-9.789,3.919-14.917
	c-3.173-4.732-9.323-5.535-15.006-1.877c-4.397,2.831-8.735,5.755-13.318,8.782c-3.065-4.582-5.782-8.738-8.598-12.826
	c-3.761-5.458-9.766-7.055-14.607-3.97c-4.65,2.964-5.442,9.336-1.78,15.026C352.073,332.412,354.949,336.655,358.032,341.31z
	 M206.361,399.566c4.79-3.223,9.371-6.179,13.813-9.33c4.651-3.298,5.894-9.767,2.893-14.089c-3.061-4.406-8.547-5.279-13.652-2.034
	c-4.583,2.913-9.078,5.966-13.479,8.869c-0.632-0.466-0.976-0.606-1.149-0.862c-2.61-3.854-5.168-7.744-7.796-11.585
	c-3.883-5.675-9.672-7.31-14.551-4.164c-4.752,3.064-5.63,9.342-1.987,15.014c2.835,4.415,5.8,8.747,8.859,13.344
	c-4.372,2.91-8.387,5.553-12.371,8.241c-5.884,3.971-7.657,9.855-4.513,14.852c3.079,4.892,9.352,5.608,15.398,1.688
	c4.282-2.776,8.505-5.642,12.901-8.563c3.418,5.128,6.472,9.882,9.708,14.508c2.394,3.421,5.778,5.22,9.918,3.887
	c4.31-1.387,7.186-4.497,6.943-9.235c-0.129-2.513-1.039-5.198-2.306-7.396C212.427,408.265,209.379,404.101,206.361,399.566z
	 M221.349,128.295c-2.983-4.423-5.737-8.542-8.529-12.635c-3.918-5.744-9.554-7.4-14.486-4.291
	c-4.971,3.134-5.747,9.395-1.857,15.39c2.773,4.273,5.608,8.506,8.575,12.998c-4.482,3.009-8.618,5.757-12.724,8.548
	c-5.852,3.979-7.385,9.894-3.906,14.927c3.053,4.417,9.195,5.13,14.703,1.609c4.44-2.84,8.811-5.788,13.256-8.718
	c0.503,0.6,0.738,0.835,0.922,1.107c2.61,3.855,5.223,7.709,7.815,11.577c3.941,5.881,8.727,7.548,13.291,4.609
	c5.342-3.439,6.461-9.36,2.736-15.249c-2.835-4.482-5.838-8.858-8.971-13.589c4.585-3.08,9.001-5.976,13.341-8.98
	c5.02-3.474,6.484-9.792,3.431-14.366c-3.026-4.532-8.717-5.337-14.081-1.886C230.426,122.204,226.058,125.172,221.349,128.295z"/>
<path fill-rule="evenodd" clip-rule="evenodd" fill="#1c75bc" d="M453.282,33.091c-0.071,8.195-6.721,14.964-14.462,14.724
	c-7.763-0.242-14.408-7.172-14.403-15.021c0.005-7.741,6.574-14.008,14.533-13.865C446.981,19.074,453.35,25.366,453.282,33.091z"/>
<path fill="#1c75bc" fill-rule="evenodd" clip-rule="evenodd" d="M91.154,214.681c4.73-3.128,8.971-6.012,13.292-8.769
	c5.754-3.671,12.023-2.821,14.994,1.926c3.142,5.021,1.585,10.661-4.086,14.545c-4.094,2.805-8.241,5.531-12.794,8.579
	c2.939,4.91,5.71,9.574,8.517,14.217c2.094,3.462,2.997,7.015,1.111,10.881c-3.366,6.902-11.719,7.654-16.149,1.36
	c-3.242-4.607-6.301-9.343-9.701-14.408c-4.485,2.963-8.705,5.793-12.968,8.558c-5.812,3.769-11.936,3.186-15.115-1.381
	c-3.6-5.171-1.956-10.923,4.342-15.185c3.971-2.687,7.943-5.37,12.26-8.29c-3.104-4.711-6.067-9.075-8.889-13.53
	c-3.544-5.596-2.746-11.505,1.841-14.583c4.927-3.306,10.619-1.875,14.599,3.701C85.204,206.221,87.964,210.164,91.154,214.681z"/>
<path fill="#1c75bc" fill-rule="evenodd" clip-rule="evenodd" d="M358.032,341.31c-3.083-4.655-5.959-8.898-8.732-13.208
	c-3.662-5.69-2.87-12.062,1.78-15.026c4.842-3.085,10.847-1.488,14.607,3.97c2.815,4.088,5.532,8.244,8.598,12.826
	c4.583-3.026,8.921-5.951,13.318-8.782c5.683-3.658,11.833-2.854,15.006,1.877c3.439,5.129,1.929,10.951-3.919,14.917
	c-3.974,2.694-7.986,5.331-12.326,8.223c3.3,5.019,6.582,9.735,9.563,14.636c2.246,3.691,2.238,7.645-0.258,11.269
	c-2.259,3.278-5.544,5.163-9.451,3.829c-2.308-0.788-4.623-2.535-6.133-4.476c-3.34-4.29-6.173-8.975-9.39-13.762
	c-4.43,2.906-8.564,5.639-12.719,8.342c-6.281,4.086-12.042,3.61-15.422-1.247c-3.274-4.707-1.612-10.798,4.073-14.974
	C350.236,347.076,353.833,344.411,358.032,341.31z"/>
<path fill="#1c75bc" fill-rule="evenodd" clip-rule="evenodd" d="M206.361,399.566c3.018,4.535,6.065,8.699,8.628,13.143
	c1.268,2.197,2.177,4.883,2.306,7.396c0.243,4.738-2.633,7.849-6.943,9.235c-4.14,1.333-7.524-0.466-9.918-3.887
	c-3.236-4.626-6.29-9.38-9.708-14.508c-4.396,2.922-8.619,5.787-12.901,8.563c-6.047,3.921-12.32,3.204-15.398-1.688
	c-3.144-4.996-1.372-10.881,4.513-14.852c3.984-2.688,8-5.331,12.371-8.241c-3.059-4.597-6.024-8.929-8.859-13.344
	c-3.643-5.672-2.766-11.949,1.987-15.014c4.879-3.146,10.668-1.511,14.551,4.164c2.628,3.841,5.186,7.73,7.796,11.585
	c0.173,0.256,0.517,0.396,1.149,0.862c4.401-2.903,8.896-5.956,13.479-8.869c5.105-3.245,10.591-2.372,13.652,2.034
	c3.001,4.322,1.758,10.791-2.893,14.089C215.732,393.387,211.151,396.343,206.361,399.566z"/>
<path fill="#1c75bc" fill-rule="evenodd" clip-rule="evenodd" d="M221.349,128.295c4.709-3.124,9.077-6.092,13.517-8.948
	c5.364-3.451,11.055-2.646,14.081,1.886c3.053,4.574,1.588,10.892-3.431,14.366c-4.34,3.004-8.756,5.9-13.341,8.98
	c3.132,4.731,6.135,9.107,8.971,13.589c3.725,5.888,2.606,11.809-2.736,15.249c-4.564,2.938-9.349,1.272-13.291-4.609
	c-2.592-3.868-5.206-7.721-7.815-11.577c-0.184-0.271-0.419-0.507-0.922-1.107c-4.446,2.93-8.816,5.878-13.256,8.718
	c-5.507,3.521-11.649,2.809-14.703-1.609c-3.479-5.034-1.945-10.949,3.906-14.927c4.106-2.791,8.241-5.539,12.724-8.548
	c-2.966-4.492-5.801-8.725-8.575-12.998c-3.89-5.995-3.114-12.256,1.857-15.39c4.932-3.109,10.568-1.454,14.486,4.291
	C215.612,119.753,218.365,123.873,221.349,128.295z"/>
</svg>
